[{"idcuenta":1,"saldo":5023.87,"num_cta":"TN70 8924 3916 4507 5992 9202","tipo":"bankcard","moneda":"ZAR","iduser":1},
{"idcuenta":2,"saldo":6129.18,"num_cta":"SA98 08EK PVKI 4SHG UC29 ZK1X","tipo":"visa-electron","moneda":"USD","iduser":2},
{"idcuenta":3,"saldo":3013.74,"num_cta":"PS19 TDGS CMNG 9EW2 N9M5 K7NE QMDP I","tipo":"diners-club-international","moneda":"EGP","iduser":3},
{"idcuenta":4,"saldo":1319.85,"num_cta":"GB92 XDJW 8399 0681 7924 44","tipo":"diners-club-carte-blanche","moneda":"CNY","iduser":4},
{"idcuenta":5,"saldo":6627.77,"num_cta":"FR66 0239 3757 61FC KIJW MIUR O19","tipo":"mastercard","moneda":"EUR","iduser":5},
{"idcuenta":6,"saldo":1672.25,"num_cta":"FR55 0614 7320 57OT XF8D IYD6 B93","tipo":"visa-electron","moneda":"ZAR","iduser":6},
{"idcuenta":7,"saldo":8909.1,"num_cta":"GI58 XNQV 8RHA CNDP 3DAZ GZQ","tipo":"jcb","moneda":"IDR","iduser":7},
{"idcuenta":8,"saldo":9428.38,"num_cta":"CZ53 2382 6662 0289 6611 9949","tipo":"diners-club-carte-blanche","moneda":"EUR","iduser":8},
{"idcuenta":9,"saldo":2692.78,"num_cta":"GI91 YAFS H1HF T0AF QJUL HQV","tipo":"visa-electron","moneda":"HNL","iduser":9},
{"idcuenta":10,"saldo":1904.46,"num_cta":"FR74 1265 4478 018U QJLZ PCQB 456","tipo":"jcb","moneda":"IDR","iduser":10},
{"idcuenta":11,"saldo":5224.83,"num_cta":"HR27 4194 7604 1397 0802 1","tipo":"switch","moneda":"RUB","iduser":10},
{"idcuenta":12,"saldo":2454.47,"num_cta":"PT71 6350 5080 6483 3931 1961 4","tipo":"americanexpress","moneda":"CNY","iduser":10},
{"idcuenta":13,"saldo":2357.33,"num_cta":"FR20 0849 0124 32AF ZMZT B6WX S82","tipo":"bankcard","moneda":"GYD","iduser":10},
{"idcuenta":14,"saldo":7504.48,"num_cta":"FR51 0713 2682 49UP UISA 33QX B48","tipo":"bankcard","moneda":"PEN","iduser":10},
{"idcuenta":15,"saldo":188.27,"num_cta":"CR72 2596 9293 5053 2479 5","tipo":"americanexpress","moneda":"HTG","iduser":10},
{"idcuenta":16,"saldo":2334.35,"num_cta":"LB83 9148 CVN7 X2LP Q6QX 5MSF HOIN","tipo":"jcb","moneda":"IDR","iduser":10},
{"idcuenta":17,"saldo":9938.84,"num_cta":"LB65 4419 ZAQO AJY8 REVO RGMJ 9YKW","tipo":"jcb","moneda":"KGS","iduser":11},
{"idcuenta":18,"saldo":3722.49,"num_cta":"BH94 DEVA M8XJ OWSF 7372 EX","tipo":"jcb","moneda":"RUB","iduser":11},
{"idcuenta":19,"saldo":3144.55,"num_cta":"IE49 YXWP 8439 1126 7661 87","tipo":"jcb","moneda":"BRL","iduser":11},
{"idcuenta":20,"saldo":8879.74,"num_cta":"BH32 NODB XLDO VAFU LGFE 9R","tipo":"diners-club-carte-blanche","moneda":"JPY","iduser":11}]
