[{"idtran":1,"tipo":true,"fecha":"13.11.2018","descripcion":"pretium quis lectus","idcuenta":1},
{"idtran":2,"tipo":false,"fecha":"17.08.2019","descripcion":"imperdiet nullam orci pede","idcuenta":2},
{"idtran":3,"tipo":true,"fecha":"17.01.2019","descripcion":"velit","idcuenta":3},
{"idtran":4,"tipo":false,"fecha":"27.12.2018","descripcion":"nec sem","idcuenta":4},
{"idtran":5,"tipo":true,"fecha":"23.08.2019","descripcion":"imperdiet nullam orci pede","idcuenta":5},
{"idtran":6,"tipo":true,"fecha":"08.06.2019","descripcion":"rutrum at lorem","idcuenta":6},
{"idtran":7,"tipo":false,"fecha":"28.07.2019","descripcion":"nulla tempus vivamus in","idcuenta":7},
{"idtran":8,"tipo":true,"fecha":"27.03.2019","descripcion":"justo eu massa donec dapibus","idcuenta":8},
{"idtran":9,"tipo":false,"fecha":"13.10.2018","descripcion":"nunc nisl","idcuenta":9},
{"idtran":10,"tipo":true,"fecha":"20.02.2019","descripcion":"luctus cum","idcuenta":10},
{"idtran":11,"tipo":false,"fecha":"11.08.2019","descripcion":"leo","idcuenta":11},
{"idtran":12,"tipo":true,"fecha":"02.03.2019","descripcion":"tellus nisi eu","idcuenta":12},
{"idtran":13,"tipo":true,"fecha":"23.04.2019","descripcion":"erat curabitur gravida nisi at","idcuenta":13},
{"idtran":14,"tipo":false,"fecha":"28.07.2019","descripcion":"lectus aliquam sit","idcuenta":14},
{"idtran":15,"tipo":false,"fecha":"29.09.2019","descripcion":"quis lectus suspendisse potenti","idcuenta":15},
{"idtran":16,"tipo":false,"fecha":"09.01.2019","descripcion":"in quam fringilla rhoncus","idcuenta":16},
{"idtran":17,"tipo":true,"fecha":"24.09.2019","descripcion":"vivamus vestibulum sagittis sapien","idcuenta":17},
{"idtran":18,"tipo":true,"fecha":"09.05.2019","descripcion":"cubilia curae","idcuenta":18},
{"idtran":19,"tipo":true,"fecha":"17.11.2018","descripcion":"luctus nec molestie","idcuenta":19},
{"idtran":20,"tipo":false,"fecha":"22.11.2018","descripcion":"enim leo rhoncus","idcuenta":20},
{"idtran":21,"tipo":true,"fecha":"17.09.2019","descripcion":"cras non velit nec","idcuenta":12},
{"idtran":22,"tipo":true,"fecha":"15.12.2018","descripcion":"phasellus sit amet erat","idcuenta":12},
{"idtran":23,"tipo":false,"fecha":"04.03.2019","descripcion":"mauris enim leo rhoncus","idcuenta":12},
{"idtran":24,"tipo":true,"fecha":"11.05.2019","descripcion":"dui nec","idcuenta":13},
{"idtran":25,"tipo":true,"fecha":"28.08.2019","descripcion":"ultrices","idcuenta":13},
{"idtran":26,"tipo":false,"fecha":"25.12.2018","descripcion":"tincidunt lacus at velit vivamus","idcuenta":13},
{"idtran":27,"tipo":false,"fecha":"13.01.2019","descripcion":"ipsum ac tellus","idcuenta":13},
{"idtran":28,"tipo":false,"fecha":"28.09.2019","descripcion":"nunc proin at turpis","idcuenta":14},
{"idtran":29,"tipo":false,"fecha":"07.09.2019","descripcion":"ipsum integer a nibh","idcuenta":14},
{"idtran":30,"tipo":true,"fecha":"19.03.2019","descripcion":"suspendisse potenti in eleifend quam","idcuenta":15}]
